{
  "_schema": {
    "name": "",
    "img": "",
    "profession": ""
    "unlock": {
      "class": 0
    }
  },
  "apprentice": {
        "name": "Apprentice",
        "img": "apprentice.png",
        "profession": "magic",
        "unlock": null
    },
    "archer": {
        "name": "Archer",
        "img": "archer.png",
        "profession": "ranged",
        "unlock": null
    },
    "wanderer": {
        "name": "Wanderer",
        "img": "wanderer.png",
        "profession": "melee",
        "unlock": null
    },
    "druid": {
        "name": "Druid",
        "img": "druid.png",
        "profession": "magic",
        "unlock": {
          "apprentice": 5
        }
    },
    "freelance": {
        "name": "Freelance",
        "img": "freelance.png",
        "profession": "melee",
        "unlock": {
          "ranger": 10,
          "druid": 10
        }
    },
    "hunter": {
        "name": "Hunter",
        "img": "hunter.png",
        "profession": "ranged",
        "unlock": {
          "marksman": 10,
          "ranger": 10
        }
    },
    "marksman": {
        "name": "Marksman",
        "img": "marksman.png",
        "profession": "ranged",
        "unlock": {
          "archer": 5
        }
    },
    "ranger": {
        "name": "Ranger",
        "img": "ranger.png",
        "profession": "melee",
        "unlock": {
          "wanderer": 5
        }
    },
    "warlock": {
        "name": "Warlock",
        "img": "warlock.png",
        "profession": "magic",
        "unlock": {
          "druid": 10,
          "marksman": 10
        }
    }
}
